{
  "results": [
    {
      "popularity": 126.062,
      "vote_count": 2497,
      "video": false,
      "poster_path": "/8WUVHemHFH2ZIP6NWkwlHWsyrEL.jpg",
      "id": 338762,
      "adult": false,
      "backdrop_path": "/ocUrMYbdjknu2TwzMHKT9PBBQRw.jpg",
      "original_language": "en",
      "original_title": "Bloodshot",
      "genre_ids": [
        28,
        878
      ],
      "title": "Bloodshot",
      "vote_average": 7,
      "overview": "Fake overview.",
      "release_date": "2020-03-05"
    },
    {
      "popularity": 123.863,
      "vote_count": 766,
      "video": false,
      "poster_path": "/wxPhn4ef1EAo5njxwBkAEVrlJJG.jpg",
      "id": 514847,
      "adult": false,
      "backdrop_path": "/naXUDz0VGK7aaPlEpsuYW8kNVsr.jpg",
      "original_language": "en",
      "original_title": "The Hunt",
      "genre_ids": [
        28,
        27,
        53
      ],
      "title": "The Hunt",
      "vote_average": 6.7,
      "overview": "Twelve strangers wake up in a clearing. They don't know where they are—or how they got there. In the shadow of a dark internet conspiracy theory, ruthless elitists gather at a remote location to hunt humans for sport. But their master plan is about to be derailed when one of the hunted turns the tables on her pursuers.",
      "release_date": "2020-03-11"
    },
    {
      "popularity": 77.97,
      "vote_count": 7709,
      "video": false,
      "poster_path": "/7IiTTgloJzvGI1TAYymCfbfl3vT.jpg",
      "id": 496243,
      "adult": false,
      "backdrop_path": "/ApiBzeaa95TNYliSbQ8pJv4Fje7.jpg",
      "original_language": "ko",
      "original_title": "기생충",
      "genre_ids": [
        35,
        18,
        53
      ],
      "title": "Parasite",
      "vote_average": 8.5,
      "overview": "All unemployed, Ki-taek's family takes peculiar interest in the wealthy and glamorous Parks for their livelihood until they get entangled in an unexpected incident.",
      "release_date": "2019-05-30"
    },
    {
      "popularity": 73.178,
      "vote_count": 1325,
      "video": false,
      "poster_path": "/jtrhTYB7xSrJxR1vusu99nvnZ1g.jpg",
      "id": 522627,
      "adult": false,
      "backdrop_path": "/tintsaQ0WLzZsTMkTiqtMB3rfc8.jpg",
      "original_language": "en",
      "original_title": "The Gentlemen",
      "genre_ids": [
        28,
        35,
        80
      ],
      "title": "The Gentlemen",
      "vote_average": 7.7,
      "overview": "American expat Mickey Pearson has built a highly profitable marijuana empire in London. When word gets out that he’s looking to cash out of the business forever it triggers plots, schemes, bribery and blackmail in an attempt to steal his domain out from under him.",
      "release_date": "2020-01-01"
    },
    {
      "popularity": 72.812,
      "vote_count": 96,
      "video": false,
      "poster_path": "/niyXFhGIk4W2WTcX2Eod8vx2Mfe.jpg",
      "id": 686245,
      "adult": false,
      "backdrop_path": "/pPguXG07MDRKH1agJdw1mWzuEkP.jpg",
      "original_language": "en",
      "original_title": "Survive the Night",
      "genre_ids": [
        28,
        53
      ],
      "title": "Survive the Night",
      "vote_average": 5.9,
      "overview": "A disgraced doctor and his family are held hostage at their home by criminals on the run, when a robbery-gone-awry requires them to seek immediate medical attention.",
      "release_date": "2020-05-22"
    },
    {
      "popularity": 72.097,
      "vote_count": 46,
      "video": false,
      "poster_path": "/m2rJGjlesDKxugl7ypW8n3Mipjl.jpg",
      "id": 620883,
      "adult": false,
      "backdrop_path": "/prnq2ONhqo9Tga7dOMZKgFJMofs.jpg",
      "original_language": "es",
      "original_title": "La corazonada",
      "genre_ids": [
        80,
        53
      ],
      "title": "Intuition",
      "vote_average": 5.9,
      "overview": "Police officer Pipa works on her first big case while simultaneously investigating her boss, who is suspected of murder. The prequel to \"Perdida\".",
      "release_date": "2020-05-28"
    },
    {
      "popularity": 52.926,
      "vote_count": 11,
      "video": false,
      "poster_path": "/A8FWpw3WHUo9EvU1xMWZRjdRlN3.jpg",
      "id": 647785,
      "adult": false,
      "backdrop_path": "/vXUX7Qi4rtOh2TxqA1eB2CU6QAo.jpg",
      "original_language": "en",
      "original_title": "Debt Collectors",
      "genre_ids": [
        28,
        35,
        80
      ],
      "title": "Debt Collectors",
      "vote_average": 5.1,
      "overview": "A pair of debt collectors are thrust into an explosively dangerous situation, chasing down various lowlifes while also evading a vengeful kingpin.",
      "release_date": "2020-05-29"
    },
    {
      "popularity": 52.727,
      "vote_count": 38,
      "video": false,
      "poster_path": "/wstBF4Yv6Jk90BjYf25mq1zqGxk.jpg",
      "id": 565743,
      "adult": false,
      "backdrop_path": "/lVSMgZUBE4XTVaPBEBAczre4f1W.jpg",
      "original_language": "en",
      "original_title": "The Vast of Night",
      "genre_ids": [
        14,
        27,
        9648,
        878
      ],
      "title": "The Vast of Night",
      "vote_average": 6.6,
      "overview": "At the dawn of the space-race, two radio-obsessed teens discover a strange frequency over the airwaves in what becomes the most important night of their lives and in the history of their small town.",
      "release_date": "2020-05-15"
    },
    {
      "popularity": 52.633,
      "vote_count": 1296,
      "video": false,
      "poster_path": "/33VdppGbeNxICrFUtW2WpGHvfYc.jpg",
      "id": 481848,
      "adult": false,
      "backdrop_path": "/9sXHqZTet3Zg5tgcc0hCDo8Tn35.jpg",
      "original_language": "en",
      "original_title": "The Call of the Wild",
      "genre_ids": [
        12,
        18,
        10751
      ],
      "title": "The Call of the Wild",
      "vote_average": 7.4,
      "overview": "Buck is a big-hearted dog whose blissful domestic life is turned upside down when he is suddenly uprooted from his California home and transplanted to the exotic wilds of the Yukon during the Gold Rush of the 1890s. As the newest rookie on a mail delivery dog sled team—and later its leader—Buck experiences the adventure of a lifetime, ultimately finding his true place in the world and becoming his own master.",
      "release_date": "2020-02-19"
    },
    {
      "popularity": 52.374,
      "vote_count": 1227,
      "video": false,
      "poster_path": "/gzlbb3yeVISpQ3REd3Ga1scWGTU.jpg",
      "id": 443791,
      "adult": false,
      "backdrop_path": "/ww7eC3BqSbFsyE5H5qMde8WkxJ2.jpg",
      "original_language": "en",
      "original_title": "Underwater",
      "genre_ids": [
        28,
        27,
        878,
        53
      ],
      "title": "Underwater",
      "vote_average": 6.3,
      "overview": "After an earthquake destroys their underwater station, six researchers must navigate two miles along the dangerous, unknown depths of the ocean floor to make it to safety in a race against time.",
      "release_date": "2020-01-08"
    },
    {
      "popularity": 43.618,
      "vote_count": 522,
      "video": false,
      "poster_path": "/c01Y4suApJ1Wic2xLmaq1QYcfoZ.jpg",
      "id": 618344,
      "adult": false,
      "backdrop_path": "/sQkRiQo3nLrQYMXZodDjNUJKHZV.jpg",
      "original_language": "en",
      "original_title": "Justice League Dark: Apokolips War",
      "genre_ids": [
        28,
        12,
        16,
        14,
        878
      ],
      "title": "Justice League Dark: Apokolips War",
      "vote_average": 8.5,
      "overview": "Earth is decimated after intergalactic tyrant Darkseid has devastated the Justice League in a poorly executed war by the DC Super Heroes. Now the remaining bastions of good – the Justice League, Teen Titans, Suicide Squad and assorted others – must regroup, strategize and take the war to Darkseid in order to save the planet and its surviving inhabitants.",
      "release_date": "2020-05-05"
    },
    {
      "popularity": 42.69,
      "vote_count": 0,
      "video": false,
      "poster_path": "/yHsu8swJSgqDrsPiu7adBjOPLlp.jpg",
      "id": 606679,
      "adult": false,
      "backdrop_path": "/2jHGYnzX7OxTLMS5MFOht6tf0Wn.jpg",
      "original_language": "en",
      "original_title": "The High Note",
      "genre_ids": [
        35,
        18,
        10402,
        10749
      ],
      "title": "The High Note",
      "vote_average": 0,
      "overview": "Set in the dazzling world of the LA music scene comes the story of Grace Davis, a superstar whose talent, and ego, have reached unbelievable heights. Maggie is Grace’s overworked personal assistant who’s stuck running errands, but still aspires to her childhood dream of becoming a music producer. When Grace’s manager presents her with a choice that could alter the course of her career, Maggie and Grace come up with a plan that could change their lives forever.",
      "release_date": "2020-06-10"
    },
    {
      "popularity": 34.735,
      "vote_count": 3186,
      "video": false,
      "poster_path": "/8ZX18L5m6rH5viSYpRnTSbb9eXh.jpg",
      "id": 619264,
      "adult": false,
      "backdrop_path": "/3tkDMNfM2YuIAJlvGO6rfIzAnfG.jpg",
      "original_language": "es",
      "original_title": "El hoyo",
      "genre_ids": [
        18,
        878,
        53
      ],
      "title": "The Platform",
      "vote_average": 7.1,
      "overview": "A mysterious place, an indescribable prison, a deep hole. An unknown number of levels. Two inmates living on each level. A descending platform containing food for all of them. An inhuman fight for survival, but also an opportunity for solidarity…",
      "release_date": "2019-11-08"
    },
    {
      "popularity": 33.047,
      "vote_count": 3,
      "video": false,
      "poster_path": "/nB0qo0U3kAgo3ubUu5zSFXheTFl.jpg",
      "id": 594314,
      "adult": false,
      "backdrop_path": "/fDcW2tQZhjx56uoTEi0pGmsTWLj.jpg",
      "original_language": "en",
      "original_title": "Blood Myth",
      "genre_ids": [
        27
      ],
      "title": "Blood Myth",
      "vote_average": 3,
      "overview": "A journalist desperately tries to find his missing fiancee and finally uncover the truth behind a sinister folklore, leading him down a dangerous road of discovery.",
      "release_date": "2020-06-04"
    },
    {
      "popularity": 31.213,
      "vote_count": 8,
      "video": false,
      "poster_path": "/oyG9TL7FcRP4EZ9Vid6uKzwdndz.jpg",
      "id": 696374,
      "adult": false,
      "backdrop_path": "/fDTPiqCynPQIkojfzdeyRHpw99S.jpg",
      "original_language": "en",
      "original_title": "Gabriel's Inferno",
      "genre_ids": [
        10749
      ],
      "title": "Gabriel's Inferno",
      "vote_average": 6.1,
      "overview": "An intriguing and sinful exploration of seduction, forbidden love, and redemption, Gabriel's Inferno is a captivating and wildly passionate tale of one man's escape from his own personal hell as he tries to earn the impossible--forgiveness and love.",
      "release_date": "2020-05-29"
    },
    {
      "popularity": 30.989,
      "vote_count": 740,
      "video": false,
      "poster_path": "/7W0G3YECgDAfnuiHG91r8WqgIOe.jpg",
      "id": 446893,
      "adult": false,
      "backdrop_path": "/qsxhnirlp7y4Ae9bd11oYJSX59j.jpg",
      "original_language": "en",
      "original_title": "Trolls World Tour",
      "genre_ids": [
        12,
        16,
        35,
        14,
        10402,
        10751
      ],
      "title": "Trolls World Tour",
      "vote_average": 7.6,
      "overview": "Queen Poppy and Branch make a surprising discovery — there are other Troll worlds beyond their own, and their distinct differences create big clashes between these various tribes. When a mysterious threat puts all of the Trolls across the land in danger, Poppy, Branch, and their band of friends must embark on an epic quest to create harmony among the feuding Trolls to unite them against certain doom.",
      "release_date": "2020-03-12"
    },
    {
      "popularity": 30.519,
      "vote_count": 4,
      "video": false,
      "poster_path": "/nrW048JoWofimI5AKXDTBzvxqRr.jpg",
      "id": 509585,
      "adult": false,
      "backdrop_path": "/y6nOwPsMzEj5DmwPtr2OsH6EiGS.jpg",
      "original_language": "en",
      "original_title": "7500",
      "genre_ids": [
        18,
        53
      ],
      "title": "7500",
      "vote_average": 5.3,
      "overview": "A pilot's aircraft is hi-jacked by terrorists.",
      "release_date": "2019-12-26"
    },
    {
      "popularity": 29.112,
      "vote_count": 0,
      "video": false,
      "poster_path": null,
      "id": 702893,
      "adult": false,
      "backdrop_path": null,
      "original_language": "en",
      "original_title": "Rhythm, Office, Sub",
      "genre_ids": [
        9648
      ],
      "title": "Rhythm, Office, Sub",
      "vote_average": 0,
      "overview": "A series of unfinished stories brought together.",
      "release_date": "2020-06-05"
    },
    {
      "popularity": 28.422,
      "vote_count": 1,
      "video": false,
      "poster_path": "/zHPdi93Clu8wy4wDHIIvDY0QT3m.jpg",
      "id": 602291,
      "adult": false,
      "backdrop_path": "/sRHssI6JWtX3lhBWAfLU6zwFpZy.jpg",
      "original_language": "ko",
      "original_title": "침입자",
      "genre_ids": [
        9648,
        53
      ],
      "title": "Intruder",
      "vote_average": 2,
      "overview": "Seo-Jin (Kim Moo-Yul) is a popular architect. He suffers from a trauma when his younger sister Yoo-Jin went missing. His sister’s disappearance occured when Seo-Jin was a child. 25 years after her disappearance, Yoo-Jin comes back to her family. Seo-Jin feels something is not right with Yoo-Jin (Song Ji-Hyo).",
      "release_date": "2020-06-04"
    },
    {
      "popularity": 27.061,
      "vote_count": 1,
      "video": false,
      "poster_path": "/zn4yzvde3zYT6i7x5Xg6DY7sFED.jpg",
      "id": 600136,
      "adult": false,
      "backdrop_path": "/wbIq9oMxvIPkTCEpPX8HTMbHntx.jpg",
      "original_language": "ko",
      "original_title": "프랑스여자",
      "genre_ids": [
        18
      ],
      "title": "A French Woman",
      "vote_average": 1,
      "overview": "Mira in her late 40´s has been living in Paris for around 20 years. Having just divorced her French husband, she decides to visit Korea, and meets her old friends Young-eun and Sung-woo. While having a cheerful time in the bar, Mira goes to the toilet and after she returns, time is reversed back to 19 years ago. It is the day of Mira’s farewell party, before she left to France.",
      "release_date": "2020-06-04"
    }
  ],
  "page": 1,
  "total_results": 614,
  "dates": {
    "maximum": "2020-06-10",
    "minimum": "2020-04-23"
  },
  "total_pages": 31
}